{
    lineage:
    {
	"superkingdom": "Eukaryota",
	"kingdom": "Fungi",
	"subkingdom": "Dikarya",
	"phylum": "Ascomycota",
	"subphylum": "Pezizomycotina",
	"class": "Sordariomycetes",
	"subclass": "Sordariomycetidae",
	"order": "Diaporthales",
	"family": "Cryphonectriaceae",
	"genus": "Chrysoporthe",
	"species": "Chrysoporthe cubensis",
	"isolate": "CMW 10028",
	"collection": "Forestry and Agricultural Biotechnology Institute (FABI), University of Pretoria, South Africa",
	"ex-type": true
    },
    literature:
    [
	{
	    "authors":
	    [
		"Wingfield, B. D.",
		"et al."
	    ],
	    "year": 2015,
	    "journal": "IMA Fungus",
	    "volume": "6",
	    "pages": "493--505",
	    "doi": "10.5598/imafungus.2015.06.02.13"
	}
    ],
    statistics:
    {
	"scaffolds": 170,
	"genomesize": 44403470,
	"numgenes": 12561,
	"busco_db": "fungi_odb10",
	"busco_c": 745,
	"busco_s": 743,
	"busco_d": 2,
	"busco_f": 1,
	"busco_m": 12,
    },
    software:
    {
	assembly:
	{
		"name": "CANU"
	},
	softmasking:
	{
		"name": "tantan",
		"version": "23"
	},
	annotation:
	{
		"name": "augustus",
		"version": "3.4.0"
	},
	completeness:
	{
		"name": "busco",
		"version": "5.0.0"
	}
    }
}
